[
    {
        "type": "start_location",
        "id": "sloc_bison",
        "name": "dairy farm",
        "terrain": [ "farm_dairy_twd_7" ]
    },

    {
        "type": "monstergroup",
        "name": "GROUP_BISON_START",
        "default": "mon_null",
        "monsters": [
            { "monster": "mon_zombie", "freq": 1, "cost_multiplier": 7, "pack_size": [ 3, 5 ] }
        ]
    },

    {
        "type": "scenario",
        "id": "bison_baby",
        "name": "Bison Farm Boy",
        "points": 0,
        "description": "TO DO",
        "start_name": "Bison Farm Boy",
        "professions": [ "wlads_bison" ],
        "allowed_locs": [ "sloc_bison" ],
        "surround_groups": [ [ "GROUP_BISON_START", 70.0 ] ],
        "flags": [ "LONE_START" ]
    }
]
