[
    {
        "type": "profession",
        "id": "wlads_magic_scout",
        "name": "Wlad's Magic Scout",
        "description": "TO DO",
        "points": 6,
        "proficiencies": [ "prof_gunsmithing_basic" ],

        "traits": [
            "TRUTHTELLER",
            "WEAKSCENT",
            "HUNGER",
            "DISORGANIZED",
            "ADDICTIVE",
            "MANA_ADD1",
            "MARTIAL_ARTS2",
            "MANA_REGEN1",
            "MANA_MULT1"
        ],
        
        "skills": [
            { "level": 6, "name": "spellcraft" },
            { "level": 3, "name": "gun" },
            { "level": 3, "name": "rifle" },
            { "level": 2, "name": "melee" },
            { "level": 2, "name": "stabbing" },
            { "level": 2, "name": "dodge" },
            { "level": 2, "name": "survival" },
            { "level": 2, "name": "firstaid" }

        ],

        "spells": [
            { "id": "invisibility", "level": 3 },
            { "id": "dark_sight", "level": 5 }
        ],
        
        "items": {
            "both": {
                "items": [
                    "pants_army",
                    "undershirt",
                    "jacket_army",
                    "ballistic_vest_esapi",
                    "helmet_army",
                    "mask_ski",
                    "gloves_liner",
                    "gloves_tactical",
                    "socks",
                    "boots_combat",
                    "wristwatch",
                    "molle_pack",
                    "webbing_belt",
                    "magic_soldier_manual"
                ],
            
                "entries": [
                    { "group": "charged_two_way_radio" },
                    { "item": "binoculars", "custom-flags": [ "no_auto_equip" ] },
                    { "item": "water_clean", "container-item": "canteen" },
                    { "item": "knife_rm42", "container-item": "sheath" },
                    { "item": "mil_mess_kit", "charges": 600 },
                    {
                        "item": "magtech_sniper_rifle",
                        "charges": 10,
                        "contents-item": [ "shoulder_strap" ]
                    },
                    { "item": "magtech_10_mana_mag", "charges": 10 },
                    { "item": "magtech_10_mana_mag", "charges": 10 },
                    { "item": "magtech_10_mana_mag", "charges": 10 }                    
                ]
            },
            "male": [ "boxer_shorts" ],
            "female": [ "sports_bra", "boxer_shorts" ]
        }
    }
]