[
    {
        "type": "profession",
        "id": "wlads_magic_rifleman",
        "name": "Wlad's Magic Rifleman",
        "description": "When you were young, you dreamed of being a soldier.\nWar is hell and hell is war, but you never thought that it would happen like this.",
        "points": 6,
        "proficiencies": [ "prof_gunsmithing_basic" ],

        "traits": [
            "TRUTHTELLER",
            "WEAKSCENT",
            "HUNGER",
            "DISORGANIZED",
            "ADDICTIVE",
            "MANA_ADD1",
            "MARTIAL_ARTS2",
            "MANA_REGEN1",
            "MANA_MULT1"
        ],
        
        "skills": [
            { "level": 6, "name": "spellcraft" },
            { "level": 3, "name": "gun" },
            { "level": 3, "name": "rifle" },
            { "level": 2, "name": "melee" },
            { "level": 2, "name": "stabbing" },
            { "level": 2, "name": "dodge" },
            { "level": 2, "name": "survival" },
            { "level": 2, "name": "firstaid" }

        ],

        "spells": [
            { "id": "invisibility", "level": 3 },
            { "id": "dark_sight", "level": 5 }
        ],
        
        "items": {
            "both": {
                "items": [
                    "pants_army",
                    "undershirt",
                    "jacket_army",
                    "ballistic_vest_esapi",
                    "helmet_army",
                    "mask_ski",
                    "gloves_liner",
                    "gloves_tactical",
                    "socks",
                    "boots_combat",
                    "wristwatch",
                    "molle_pack",
                    "magic_soldier_manual",
                    "webbing_belt"
                ],
                
                "entries": [
                    { "group": "charged_two_way_radio" },
                    { "item": "water_clean", "container-item": "canteen" },
                    { "item": "ear_plugs", "custom-flags": [ "no_auto_equip" ] },
                    { "item": "knife_combat", "container-item": "sheath" },
                    { "item": "mil_mess_kit", "charges": 600 },
                    {
                        "item": "magtech_assault_rifle",
                        "charges": 50,
                        "contents-item": [ "shoulder_strap", "holo_sight" ]
                    },
                    { "item": "magtech_50_mana_mag", "charges": 50 },
                    { "item": "magtech_50_mana_mag", "charges": 50 },
                    { "item": "magtech_50_mana_mag", "charges": 50 }                    
                ]
            },
            "male": [ "boxer_shorts" ],
            "female": [ "sports_bra", "boxer_shorts" ]
        }
    }
]