[
  {
    "type": "MOD_INFO",
    "id": "wlads_modicikations",
    "name": "Wlad's Modifications",
    "authors": [ "Dikiy4eburator" ],
    "description": "Just some random game modifications",
    "category": "misc",
    "dependencies": [ "dda", "magiclysm" ]
  }
]
