[
  {
    "type": "recipe",
    "activity_level": "LIGHT_EXERCISE",
    "result": "stew",
    "category": "CC_FOOD",
    "subcategory": "CSC_FOOD_MEAT",
    "skill_used": "cooking",
    "difficulty": 3,
    "time": "40 m",
    "batch_time_factors": [ 80, 1 ],
    "autolearn": true,
    "qualities": [ { "id": "COOK", "level": 1 }, { "id": "CUT", "level": 1 } ],
    "tools": [ [ [ "surface_heat", 12, "LIST" ] ] ],
    "components": [
      [
        [ "meat_red", 1, "LIST" ],
        [ "dry_meat", 1 ],
        [ "mutant_meat", 1 ],
        [ "mutant_meat_cooked", 1 ],
        [ "mutant_meat_scrap", 1 ],
        [ "bacon", 2 ],
        [ "meat_cooked", 1 ],
        [ "meat_smoked", 1 ],
        [ "rehydrated_meat", 1 ],
        [ "sausage", 2 ],
        [ "sausage_cooked", 1 ],
        [ "bratwurst_sausage", 2 ],
        [ "jerky", 1 ],
        [ "salted_fish", 1 ],
        [ "meat_pickled", 1 ],
        [ "meat_salted", 1 ],
        [ "meat_canned", 1 ],
        [ "can_chicken", 1 ],
        [ "can_spam", 2 ],
        [ "dry_fish", 1 ],
        [ "fish_pickled", 1 ],
        [ "fish_canned", 1 ],
        [ "cracklins", 2 ],
        [ "can_sardine", 1 ],
        [ "can_tuna", 1 ],
        [ "can_salmon", 1 ],
        [ "can_herring", 1 ]
      ],
      [
        [ "veggy_any", 2, "LIST" ],
        [ "veggy_pickled", 2 ],
        [ "veggy_aspic", 2 ],
        [ "veggy_canned", 2 ],
        [ "rehydrated_veggy", 2 ],
        [ "veggy_cooked", 2 ],
        [ "veggy_wild_cooked", 2 ],
        [ "veggy_salted", 2 ],
        [ "dry_veggy", 2 ],
        [ "mushroom", 2 ],
        [ "dry_mushroom", 2 ],
        [ "morel_cooked", 2 ],
        [ "mushroom_cooked", 2 ]
      ],
      [
        [ "water", 1 ],
        [ "water_clean", 1 ]
      ]    
    ]
  },
  {
    "type": "recipe",
    "activity_level": "LIGHT_EXERCISE",
    "result": "stew deluxe",
    "category": "CC_FOOD",
    "subcategory": "CSC_FOOD_MEAT",
    "skill_used": "cooking",
    "difficulty": 3,
    "time": "40 m",
    "batch_time_factors": [ 80, 1 ],
    "autolearn": true,
    "qualities": [ { "id": "COOK", "level": 1 }, { "id": "CUT", "level": 1 } ],
    "tools": [ [ [ "surface_heat", 12, "LIST" ] ] ],
    "components": [
      [
        [ "meat_red", 1, "LIST" ],
        [ "dry_meat", 1 ],
        [ "mutant_meat", 1 ],
        [ "mutant_meat_cooked", 1 ],
        [ "mutant_meat_scrap", 1 ],
        [ "bacon", 2 ],
        [ "meat_cooked", 1 ],
        [ "meat_smoked", 1 ],
        [ "rehydrated_meat", 1 ],
        [ "sausage", 2 ],
        [ "sausage_cooked", 1 ],
        [ "bratwurst_sausage", 2 ],
        [ "jerky", 1 ],
        [ "salted_fish", 1 ],
        [ "meat_pickled", 1 ],
        [ "meat_salted", 1 ],
        [ "meat_canned", 1 ],
        [ "can_chicken", 1 ],
        [ "can_spam", 2 ],
        [ "dry_fish", 1 ],
        [ "fish_pickled", 1 ],
        [ "fish_canned", 1 ],
        [ "cracklins", 2 ],
        [ "can_sardine", 1 ],
        [ "can_tuna", 1 ],
        [ "can_salmon", 1 ],
        [ "can_herring", 1 ]
      ],
      [
        [ "veggy_any", 2, "LIST" ],
        [ "veggy_pickled", 2 ],
        [ "veggy_aspic", 2 ],
        [ "veggy_canned", 2 ],
        [ "rehydrated_veggy", 2 ],
        [ "veggy_cooked", 2 ],
        [ "veggy_wild_cooked", 2 ],
        [ "veggy_salted", 2 ],
        [ "dry_veggy", 2 ],
        [ "mushroom", 2 ],
        [ "dry_mushroom", 2 ],
        [ "morel_cooked", 2 ],
        [ "mushroom_cooked", 2 ]
      ],
      [
        [ "sauce_pesto", 1 ],
        [ "sauce_red", 1 ],
        [ "seasoning_italian", 5 ],
        [ "wild_herbs", 5 ],
        [ "pepper", 1 ],
        [ "curry_powder", 1 ],
        [ "chilly-p", 1 ],
        [ "hot_sauce", 1 ],
        [ "salt", 1 ],
        [ "soysauce", 1 ],
        [ "seasoning_salt", 1 ]
      ],
      [
        [ "water", 1 ],
        [ "water_clean", 1 ]
      ]    
    ]
  },



  {
    "type": "recipe",
    "activity_level": "LIGHT_EXERCISE",
    "result": "pemmican",
    "category": "CC_FOOD",
    "subcategory": "CSC_FOOD_MEAT",
    "skill_used": "cooking",
    "difficulty": 5,
    "charges": 4,
    "time": "45 m",
    "batch_time_factors": [ 80, 1 ],
    "autolearn": true,
    "qualities": [ { "id": "CUT", "level": 1 } ],
    "tools": [ [ [ "surface_heat", 2, "LIST" ] ] ],
    "components": [
      [ [ "edible_tallow_lard", 2, "LIST" ] ],
      [ [ "jerky", 2 ], [ "dry_meat", 2 ], [ "meat_smoked", 2 ], [ "dry_fish", 2 ], [ "fish_smoked", 2 ] ],
      [
        [ "dry_veggy", 2 ],
        [ "dry_fruit", 2 ],
        [ "dry_mushroom", 2 ],
        [ "juice_pulp", 4 ],
        [ "irradiated_strawberries", 1 ],
        [ "strawberries", 1 ],
        [ "irradiated_blueberries", 1 ],
        [ "blueberries", 1 ],
        [ "irradiated_cherries", 1 ],
        [ "cherries", 1 ],
        [ "irradiated_cranberries", 1 ],
        [ "cranberries", 1 ],
        [ "irradiated_raspberries", 1 ],
        [ "raspberries", 1 ],
        [ "irradiated_blackberries", 1 ],
        [ "blackberries", 1 ]
      ]
    ]
  },
  {
    "type": "recipe",
    "activity_level": "LIGHT_EXERCISE",
    "result": "lard",
    "byproducts": [ [ "cracklins" ] ],
    "category": "CC_FOOD",
    "subcategory": "CSC_FOOD_MEAT",
    "skill_used": "cooking",
    "difficulty": 3,
    "time": "20 m",
    "charges": 6,
    "autolearn": true,
    "batch_time_factors": [ 75, 2 ],
    "qualities": [ { "id": "CUT", "level": 2 }, { "id": "COOK", "level": 2 } ],
    "tools": [ [ [ "surface_heat", 6, "LIST" ] ] ],
    "//": "this recipe is weird.  440g of fat and nothing else, presumably cut into cubes and cooked.  the recipe should have water, but then it's not clear why this is different from tallow.",
    "//1": "for now I'm going to treat it as dry rendering fat and the leftovers being turned into cracklins.  Power cost goes up as a result, compared to 30u for cracklins (which use same amt of fat).",
    "proficiencies": [ { "proficiency": "prof_food_prep" }, { "proficiency": "prof_knife_skills" } ],
    "components": [ [ [ "fat", 2 ] ] ]
  },
  {
    "type": "recipe",
    "activity_level": "LIGHT_EXERCISE",
    "result": "jerky",
    "category": "CC_FOOD",
    "subcategory": "CSC_FOOD_MEAT",
    "delete_flags": [ "BAD_TASTE" ],
    "skill_used": "cooking",
    "difficulty": 3,
    "time": "20 m",
    "charges": 1,
    "autolearn": true,
    "batch_time_factors": [ 83, 5 ],
    "tools": [ [ [ "surface_heat", 1, "LIST" ] ] ],
    "components": [
      [
        [ "salt_water", 1 ],
        [ "saline", 1 ],
        [ "salt", 1 ],
        [ "soysauce", 1 ],
        [ "seasoning_salt", 1 ],
        [ "pepper", 2 ],
        [ "chem_saltpetre", 1 ],
        [ "chem_black_powder", 47 ]
      ],
      [ [ "meat_red_raw", 1, "LIST" ] ]
    ]
  },
  
  
  
  {
    "type": "recipe",
    "activity_level": "LIGHT_EXERCISE",
    "result": "pelmeni",
    "category": "CC_FOOD",
    "subcategory": "CSC_FOOD_MEAT",
    "skill_used": "cooking",
    "difficulty": 3,
    "time": "40 m",
    "batch_time_factors": [ 80, 1 ],
    "autolearn": true,
    "qualities": [ { "id": "COOK", "level": 1 }, { "id": "CUT", "level": 1 } ],
    "tools": [ [ [ "surface_heat", 1.2, "LIST" ] ] ],
    "components": [ [ [ "flour", 2 ] ], [ [ "meat_red", 1, "LIST" ], [ "dry_meat", 1 ] ], [ [ "water", 1 ], [ "water_clean", 1 ] ] ]
  },

  

  {
    "type": "recipe",
    "activity_level": "LIGHT_EXERCISE",
    "result": "pie",
    "category": "CC_FOOD",
    "subcategory": "CSC_FOOD_VEGGI",
    "skill_used": "cooking",
    "difficulty": 3,
    "time": "25 m",
    "book_learn": [ [ "baking_book", 3 ], [ "family_cookbook", 3 ], [ "sweets_book", 3 ] ],
    "qualities": [ { "id": "COOK", "level": 2 } ],
    "tools": [ [ [ "surface_heat", 6, "LIST" ] ] ],
    "components": [
      [ [ "flour", 30 ] ],
      [ [ "sweet_fruit_like", 8, "LIST" ] ],
      [ [ "sugar", 20 ], [ "syrup", 4 ], [ "beet_syrup", 4 ], [ "molasses", 4 ], [ "artificial_sweetener", 20 ] ],
      [ [ "water", 1 ], [ "water_clean", 1 ] ]
    ]
  },
  {
    "type": "recipe",
    "activity_level": "LIGHT_EXERCISE",
    "result": "pie_veggy",
    "category": "CC_FOOD",
    "subcategory": "CSC_FOOD_VEGGI",
    "skill_used": "cooking",
    "difficulty": 3,
    "charges": 4,
    "time": "25 m",
    "book_learn": [ [ "baking_book", 2 ], [ "scots_cookbook", 3 ], [ "cookbook", 3 ] ],
    "qualities": [ { "id": "COOK", "level": 2 } ],
    "tools": [ [ [ "surface_heat", 6, "LIST" ] ] ],
    "components": [ [ [ "flour", 30 ] ], [ [ "veggy_any", 8, "LIST" ], [ "wild_herbs", 40 ] ], [ [ "water", 1 ], [ "water_clean", 1 ] ] ]
  },
  {
    "type": "recipe",
    "activity_level": "LIGHT_EXERCISE",
    "result": "pie_meat",
    "category": "CC_FOOD",
    "subcategory": "CSC_FOOD_MEAT",
    "skill_used": "cooking",
    "difficulty": 3,
    "charges": 4,
    "time": "25 m",
    "book_learn": [ [ "baking_book", 2 ], [ "scots_cookbook", 3 ] ],
    "qualities": [ { "id": "COOK", "level": 2 } ],
    "tools": [ [ [ "surface_heat", 6, "LIST" ] ] ],
    "components": [
      [ [ "flour", 30 ] ],
      [
        [ "meat_red", 1, "LIST" ],
        [ "dry_meat", 1 ],
        [ "can_chicken", 1 ],
        [ "fish", 1 ],
        [ "rehydrated_fish", 1 ],
        [ "dry_fish", 1 ],
        [ "salted_fish", 1 ],
        [ "meat_salted", 1 ],
        [ "fish_canned", 1 ],
        [ "can_tuna", 1 ]
      ],
      [ [ "water", 1 ], [ "water_clean", 1 ] ]
    ]
  },



  {
    "type": "recipe",
    "activity_level": "LIGHT_EXERCISE",
    "result": "pizza_cheese",
    "category": "CC_FOOD",
    "subcategory": "CSC_FOOD_OTHER",
    "skill_used": "cooking",
    "difficulty": 3,
    "time": "20 m",
    "book_learn": [ [ "cookbook_italian", 2 ] ],
    "qualities": [ { "id": "COOK", "level": 2 } ],
    "tools": [ [ [ "surface_heat", 8, "LIST" ] ] ],
    "components": [
      [ [ "flour", 30 ] ],
      [ [ "cheese", 2 ], [ "can_cheese", 2 ], [ "cheese_hard", 2 ] ],
      [ [ "sauce_pesto", 1 ], [ "sauce_red", 1 ], [ "seasoning_italian", 5 ], [ "wild_herbs", 10 ] ],
      [ [ "water", 1 ], [ "water_clean", 1 ] ]
    ]
  },
  {
    "type": "recipe",
    "activity_level": "LIGHT_EXERCISE",
    "result": "pizza_meat",
    "category": "CC_FOOD",
    "subcategory": "CSC_FOOD_MEAT",
    "skill_used": "cooking",
    "difficulty": 3,
    "time": "20 m",
    "book_learn": [ [ "cookbook_italian", 2 ] ],
    "qualities": [ { "id": "COOK", "level": 2 } ],
    "tools": [ [ [ "surface_heat", 8, "LIST" ] ] ],
    "components": [
      [ [ "flour", 30 ] ],
      [
        [ "meat_red", 2, "LIST" ],
        [ "can_chicken", 2 ],
        [ "meat_salted", 2 ],
        [ "dry_meat", 2 ],
        [ "fish", 2 ],
        [ "fish_canned", 2 ],
        [ "can_tuna", 2 ],
        [ "salted_fish", 2 ],
        [ "rehydrated_fish", 2 ],
        [ "dry_fish", 2 ]
      ],
      [ [ "sauce_red", 1 ], [ "seasoning_italian", 5 ], [ "wild_herbs", 10 ] ],
      [ [ "water", 1 ], [ "water_clean", 1 ] ]
    ]
  },
  {
    "type": "recipe",
    "activity_level": "LIGHT_EXERCISE",
    "result": "pizza_veggy",
    "category": "CC_FOOD",
    "subcategory": "CSC_FOOD_VEGGI",
    "skill_used": "cooking",
    "difficulty": 3,
    "time": "20 m",
    "book_learn": [ [ "cookbook_italian", 2 ], [ "cookbook_eatyrway", 3 ] ],
    "qualities": [ { "id": "COOK", "level": 2 } ],
    "tools": [ [ [ "surface_heat", 8, "LIST" ] ] ],
    "components": [
      [ [ "flour", 30 ] ],
      [
        [ "veggy_any", 2, "LIST" ],
        [ "mushroom", 2 ],
        [ "dry_mushroom", 2 ],
        [ "morel_cooked", 2 ],
        [ "tofu", 2 ],
        [ "dry_tofu", 2 ],
        [ "mushroom_cooked", 2 ],
        [ "dry_veggy", 2 ]
      ],
      [
        [ "sauce_pesto", 1 ],
        [ "sauce_red", 1 ],
        [ "seasoning_italian", 5 ],
        [ "wild_herbs", 10 ],
        [ "tomato", 1 ],
        [ "irradiated_tomato", 1 ],
        [ "can_tomato", 1 ]
      ],
      [ [ "water", 1 ], [ "water_clean", 1 ] ]
    ]
  },
  {
    "type": "recipe",
    "activity_level": "LIGHT_EXERCISE",
    "result": "pizza_supreme",
    "category": "CC_FOOD",
    "subcategory": "CSC_FOOD_MEAT",
    "skill_used": "cooking",
    "difficulty": 3,
    "time": "30 m",
    "book_learn": [ [ "cookbook_italian", 3 ] ],
    "qualities": [ { "id": "COOK", "level": 2 } ],
    "tools": [ [ [ "surface_heat", 8, "LIST" ] ] ],
    "components": [
      [ [ "flour", 30 ] ],
      [
        [ "meat_red", 2, "LIST" ],
        [ "can_chicken", 2 ],
        [ "meat_salted", 2 ],
        [ "dry_meat", 2 ],
        [ "fish", 2 ],
        [ "fish_canned", 2 ],
        [ "can_tuna", 2 ],
        [ "salted_fish", 2 ],
        [ "rehydrated_fish", 2 ],
        [ "dry_fish", 2 ],
        [ "tofu", 2 ],
        [ "dry_tofu", 2 ]
      ],
      [
        [ "veggy_any", 2, "LIST" ],
        [ "mushroom", 2 ],
        [ "dry_mushroom", 2 ],
        [ "morel_cooked", 2 ],
        [ "mushroom_cooked", 2 ],
        [ "dry_veggy", 2 ]
      ],
      [ [ "cheese", 2 ], [ "can_cheese", 2 ], [ "cheese_hard", 2 ] ],
      [ [ "sauce_pesto", 1 ], [ "sauce_red", 1 ], [ "seasoning_italian", 5 ], [ "wild_herbs", 10 ] ],
      [ [ "water", 1 ], [ "water_clean", 1 ] ]
    ]
  }
]
