[
  {
    "type": "COMESTIBLE",
    "id": "stew",
    "name": { "str": "stew" },
    "conditional_names": [
      {
      "type": "COMPONENT_ID",
      "condition": "mutant",
      "name": { "str_sp": "perilous %s" } 
      }
    ],
    "weight": "500 g",
    "color": "light_red",
    "spoils_in": "20 days",
    "container": "can_medium",
    "comestible_type": "FOOD",
    "symbol": "%",
    "description": "stew, as simple as it could be",
    "price": 350,
    "price_postapoc": 400,
    "material": [ "flesh", "veggy" ],
    "volume": "500 ml",
    "flags": [ "EATEN_HOT" ],
    "fun": 10,
    "vitamins": [
      [ "vitC", 300 ],
      [ "calcium", 300 ],
      [ "iron", 300 ]
    ]
  },
  {
    "type": "COMESTIBLE",
    "id": "stew deluxe",
    "name": { "str": "stew deluxe" },
    "conditional_names": [
      {
      "type": "COMPONENT_ID",
      "condition": "mutant",
      "name": { "str_sp": "perilous %s" } 
      }
    ],
    "weight": "500 g",
    "color": "light_red",
    "spoils_in": "20 days",
    "container": "can_medium",
    "comestible_type": "FOOD",
    "symbol": "%",
    "description": "stew, as simple as it could be",
    "price": 350,
    "price_postapoc": 400,
    "material": [ "flesh", "veggy" ],
    "volume": "500 ml",
    "flags": [ "EATEN_HOT" ],
    "fun": 15,
    "vitamins": [
      [ "vitC", 300 ],
      [ "calcium", 300 ],
      [ "iron", 300 ]
    ]
  },



  {
    "type": "COMESTIBLE",
    "id": "pelmeni",
    "name": { "str": "pelmeni" },
    "conditional_names": [
      {
      "type": "COMPONENT_ID",
      "condition": "mutant",
      "name": { "str_sp": "perilous %s" } 
      }
    ],
    "weight": "151 g",
    "color": "light_red",
    "spoils_in": "20 days",
    "container": "can_medium",
    "comestible_type": "FOOD",
    "symbol": "%",
    "description": "Delicious cooked dumplings consisting of a meat filling wrapped in thin dough.",
    "price": 350,
    "price_postapoc": 400,
    "material": [ "flesh", "wheat" ],
    "volume": "250 ml",
    "flags": [ "EATEN_HOT" ],
    "fun": 6,
    "vitamins": [
      [ "vitC", 300 ],
      [ "calcium", 300 ],
      [ "iron", 300 ]
    ]
  },
  
  {
    "type": "COMESTIBLE",
    "id": "pemmican",
    "name": { "str_sp": "pemmican" },
    "conditional_names": [
      { "type": "FLAG", "condition": "CANNIBALISM", "name": { "str_sp": "prepper %s" } },
      { "type": "FLAG", "condition": "STRICT_HUMANITARIANISM", "name": { "str_sp": "Orley %s" } },
      { "type": "COMPONENT_ID", "condition": "mutant", "name": { "str_sp": "pernicious %s" } }
    ],
    "weight": "106 g",
    "color": "brown",
    "spoils_in": "1800 days",
    "container": "bag_plastic",
    "comestible_type": "FOOD",
    "symbol": "%",
    "quench": -2,
    "description": "A concentrated mixture of fat and protein used as a nutritious high-energy food.  Composed of meat, tallow, and edible plants, it provides excellent nutrition in an easy to carry form.",
    "price": 600,
    "price_postapoc": 350,
    "material": [ "flesh", "veggy" ],
    "volume": "120 ml",
    "vitamins": [
      [ "vitC", 300 ],
      [ "calcium", 300 ],
      [ "iron", 300 ]
    ],
    "fun": 3
  },



  {
    "type": "COMESTIBLE",
    "id": "pizza_meat",
    "name": { "str": "meat pizza" },
    "conditional_names": [
      { "type": "FLAG", "condition": "CANNIBALISM", "name": { "str_sp": "poser pizza" } },
      { "type": "FLAG", "condition": "STRICT_HUMANITARIANISM", "name": { "str_sp": "protesting pizza" } },
      { "type": "COMPONENT_ID", "condition": "mutant", "name": { "str_sp": "miserable %s" } }
    ],
    "weight": "230 g",
    "color": "light_red",
    "spoils_in": "20 days",
    "container": "box_small",
    "comestible_type": "FOOD",
    "symbol": "%",
    "calories": 566,
    "description": "A meat pizza, for all the carnivores out there.  Chock-full of minced meat and heavily seasoned.",
    "price": 1090,
    "price_postapoc": 1000,
    "material": [ "wheat", "flesh" ],
    "volume": "250 ml",
   "flags": [ "EATEN_HOT" ],
    "fun": 10,
    "vitamins": [
      [ "vitC", 300 ],
      [ "calcium", 300 ],
      [ "iron", 300 ]
    ]
  },
  {
    "type": "COMESTIBLE",
    "id": "pizza_supreme",
    "name": { "str": "supreme pizza" },
    "copy-from": "pizza_meat",
    "color": "light_red",
    "weight": "300 g",
    "calories": 641,
    "description": "A supreme pizza with ALL the toppings.",
    "price": 1500,
    "price_postapoc": 1500,
    "material": [ "wheat", "flesh", "veggy", "milk" ],
    "fun": 11,
    "vitamins": [
      [ "vitC", 300 ],
      [ "calcium", 300 ],
      [ "iron", 300 ]
    ]
  },


















  {
    "type": "COMESTIBLE",
    "id": "meat_pickled",
    "name": { "str": "pickled meat" },
    "conditional_names": [
      { "type": "FLAG", "condition": "CANNIBALISM", "name": { "str_sp": "pickled punk" } },
      { "type": "FLAG", "condition": "STRICT_HUMANITARIANISM", "name": { "str_sp": "pickled anthro" } },
      { "type": "COMPONENT_ID", "condition": "mutant", "name": { "str_sp": "%s, mutant" } }
    ],
    "copy-from": "meat_cooked",
    "color": "pink",
    "spoils_in": "360 days",
    "container": "jar_glass_sealed",
    "healthy": 1,
    "description": "This is a serving of crisply brined and canned meat.  Tasty and nutritious.",
    "price": 250,
    "price_postapoc": 300,
    "delete": { "flags": [ "NUTRIENT_OVERRIDE" ] },
    "fun": 6
  },
  
  {
    "type": "COMESTIBLE",
    "id": "dry_meat",
    "name": { "str": "dehydrated meat" },
    "conditional_names": [
      { "type": "FLAG", "condition": "CANNIBALISM", "name": { "str_sp": "%s, human" } },
      { "type": "FLAG", "condition": "STRICT_HUMANITARIANISM", "name": { "str_sp": "%s, demihuman" } },
      { "type": "COMPONENT_ID", "condition": "mutant", "name": { "str_sp": "%s, mutant" } }
    ],
    "copy-from": "meat_cooked",
    "proportional": { "price": 2.0, "volume": 0.345, "weight": 0.345 },
    "color": "red",
    "spoils_in": "1440 days",
    "quench": -3,
    "description": "Dehydrated meat flakes.  With proper storage, this dried food will remain edible for an incredibly long time.",
    "price_postapoc": 300,
    "material": [ "flesh" ],
    "primary_material": "cured_meat",
    "flags": [ "EDIBLE_FROZEN" ]
  },
  {
    "type": "COMESTIBLE",
    "id": "meat_canned",
    "name": { "str": "canned meat" },
    "conditional_names": [
      { "type": "FLAG", "condition": "CANNIBALISM", "name": { "str_sp": "soylent slice" } },
      { "type": "FLAG", "condition": "STRICT_HUMANITARIANISM", "name": { "str_sp": "sapient slice" } },
      { "type": "COMPONENT_ID", "condition": "mutant", "name": { "str_sp": "%s, mutant" } }
    ],
    "copy-from": "meat_cooked",
    "color": "red",
    "spoils_in": "360 day",
    "container": "can_food",
    "description": "Low-sodium preserved meat.  It was boiled and canned.  Contains most of the nutrition, but little of the savor of cooked meat.",
    "price": 250,
    "price_postapoc": 250,
    "flags": [ "EATEN_HOT" ],
    "sealed": true,
    "fun": 2
  },
  
  {
    "type": "COMESTIBLE",
    "id": "meat_salted",
    "name": { "str": "salted meat slice" },
    "conditional_names": [
      {
        "type": "FLAG",
        "condition": "CANNIBALISM",
        "name": { "str_sp": "salted simpleton slice" }
      },
      {
        "type": "FLAG",
        "condition": "STRICT_HUMANITARIANISM",
        "name": { "str_sp": "salted sapient slice" }
      },
      {
        "type": "COMPONENT_ID",
        "condition": "mutant",
        "name": { "str_sp": "%s, mutant" }
      }
    ],

    "copy-from": "meat_cooked",
    "color": "red",
    "spoils_in": "360 day",
    "container": "plastic_bag_vac",
    "quench": -5,
    "description": "Meat slices cured in brine.  Salty but tasty in a pinch.",
    "price": 500,
    "price_postapoc": 300,
    "material": [ "flesh" ],
    "delete": { "flags": [ "NUTRIENT_OVERRIDE" ] },
    "primary_material": "cured_meat",
    "fun": 2
  },
  
  







  
  {
    "type": "COMESTIBLE",
    "id": "cracklins",
    "name": { "str_sp": "cracklins" },
    "weight": "42 g",
    "color": "brown",
    "spoils_in": "70 days",
    "container": "bag_plastic",
    "comestible_type": "FOOD",
    "symbol": "%",
    "quench": -2,
    "healthy": -1,
    "calories": 270,
    "description": "Also known as pork rinds or chicharrones, these are bits of edible fat and skin that have been fried until they are crispy and delicious.",
    "price": 170,
    "volume": "100 ml",
    "price_postapoc": 500,
    "material": [ "flesh" ],
    "flags": [ "EATEN_HOT" ],
    "fun": 4
  },

  {
    "type": "COMESTIBLE",
    "id": "mutant_cracklins",
    "name": { "str_sp": "cracklins" },
    "copy-from": "cracklins",
    "material": [ "flesh" ],
    "vitamins": [
      [ "vitC", 300 ],
      [ "calcium", 300 ],
      [ "iron", 300 ]
    ]
  },

  {
    "type": "COMESTIBLE",
    "id": "sausage_raw",
    "name": { "str": "raw sausage" },
    "conditional_names": [
      { "type": "FLAG", "condition": "CANNIBALISM", "name": "raw Mannwurst" },
      { "type": "FLAG", "condition": "STRICT_HUMANITARIANISM", "name": "raw killbasa" },
      { "type": "COMPONENT_ID", "condition": "mutant", "name": { "str_sp": "sinister %s" } }
    ],
    "weight": "148 g",
    "color": "red",
    "spoils_in": "30 day",
    "comestible_type": "FOOD",
    "symbol": "%",
    "quench": -1,
    "calories": 474,
    "healthy": -1,
    "parasites": 32,
    "description": "A hefty raw sausage, prepared for smoking or cooking.",
    "price": 1600,
    "price_postapoc": 200,
    "material": [ "flesh" ],
    "volume": "250 ml",
    "flags": [ "SMOKABLE" ],
    "smoking_result": "sausage",
    "vitamins": [
      [ "vitC", 300 ],
      [ "calcium", 300 ],
      [ "iron", 300 ]
    ],
    "fun": -10
  },

  {
    "type": "COMESTIBLE",
    "id": "sausage",
    "name": { "str": "smoked sausage" },
    "conditional_names": [
      { "type": "FLAG", "condition": "CANNIBALISM", "name": "smoked Mannwurst" },
      { "type": "FLAG", "condition": "STRICT_HUMANITARIANISM", "name": "smoked killbasa" },
      { "type": "COMPONENT_ID", "condition": "mutant", "name": { "str_sp": "sinister %s" } }
    ],
    "copy-from": "sausage_raw",
    "parasites": 0,
    "healthy": 0,
    "spoils_in": "50 days",
    "price_postapoc": 300,
    "description": "A hefty sausage that has been cured and smoked for long term storage.",
    "flags": [ "EATEN_HOT", "SMOKED" ],
    "fun": 5
  },

  {
    "type": "COMESTIBLE",
    "id": "sausage_cooked",
    "name": { "str": "cooked sausage" },
    "conditional_names": [
      { "type": "FLAG", "condition": "CANNIBALISM", "name": "cooked Mannwurst" },
      { "type": "FLAG", "condition": "STRICT_HUMANITARIANISM", "name": "cooked killbasa" },
      { "type": "COMPONENT_ID", "condition": "mutant", "name": { "str_sp": "sinister %s" } }
    ],
    "copy-from": "sausage_raw",
    "parasites": 0,
    "healthy": 0,
    "fun": 5,
    "spoils_in": "20 days",
    "price_postapoc": 200,
    "description": "A hefty sausage that has been cooked.",
    "flags": [ "EATEN_HOT" ]
  },

  {
    "type": "COMESTIBLE",
    "id": "sweet_sausage",
    "name": { "str": "sweet sausage" },
    "conditional_names": [ { "type": "COMPONENT_ID", "condition": "mutant", "name": { "str_sp": "sinister %s" } } ],
    "weight": "148 g",
    "color": "brown",
    "spoils_in": "20 days",
    "comestible_type": "FOOD",
    "symbol": "%",
    "calories": 539,
    "description": "A sweet and delicious sausage.  Better eat it fresh.",
    "price": 2400,
    "material": [ "flesh" ],
    "volume": "250 ml",
    "price_postapoc": 250,
    "vitamins": [
      [ "vitC", 300 ],
      [ "calcium", 300 ],
      [ "iron", 300 ]
    ],
    "flags": [ "EATEN_HOT" ],
    "fun": 8
  },

  {
    "type": "COMESTIBLE",
    "id": "bratwurst_sausage",
    "name": { "str": "bratwurst" },
    "conditional_names": [
      { "type": "FLAG", "condition": "CANNIBALISM", "name": "Mannbrat" },
      { "type": "FLAG", "condition": "STRICT_HUMANITARIANISM", "name": "frankenfurter" },
      { "type": "COMPONENT_ID", "condition": "mutant", "name": { "str_sp": "baleful %s" } }
    ],
    "weight": "100 g",
    "color": "brown",
    "spoils_in": "20 days",
    "comestible_type": "FOOD",
    "symbol": "%",
    "looks_like": "sausage",
    "quench": -1,
    "calories": 297,
    "description": "A type of German sausage made of finely chopped meat and meant to be pan fried or roasted.  Better eat it hot and fresh.",
    "price": 1800,
    "volume": "1500 ml",
    "//": "volume and weight for a roughly 25cm length, 2.5cm diameter link, estimated",
    "material": [ "flesh" ],
    "flags": [ "EATEN_HOT" ],
    "fun": 5
  },

  {
    "type": "COMESTIBLE",
    "id": "royal_beef",
    "name": { "str_sp": "royal beef" },
    "weight": "446 g",
    "color": "white",
    "spoils_in": "30 days 8 hours",
    "comestible_type": "FOOD",
    "symbol": "%",
    "healthy": 10,
    "calories": 637,
    "description": "A chunk of meat with a coat of royal jelly over it.  It's a lot like a honey-baked ham.",
    "price": 21000,
    "price_postapoc": 4500,
    "material": [ "flesh" ],
    "volume": "500 ml",
    "fun": 7,
    "vitamins": [
      [ "vitC", 300 ],
      [ "calcium", 300 ],
      [ "iron", 300 ]
    ]
  },
  
  {
    "id": "sausage_wasteland",
    "copy-from": "sausage_raw",
    "type": "COMESTIBLE",
    "name": { "str": "wasteland sausage" },
    "description": "Lean sausage made from heavily salt-cured offal, with natural gut casing.  Waste not, want not.",
    "parasites": 0,
    "healthy": 0,
    "spoils_in": 1176,
    "quench": -7,
    "fun": -3,
    "flags": [ "SMOKED" ]
  },

  {
    "id": "sausage_wasteland_raw",
    "copy-from": "sausage_raw",
    "type": "COMESTIBLE",
    "name": { "str": "raw wasteland sausage" },
    "description": "Lean raw sausage made from heavily salt-cured offal, ready to be smoked.",
    "healthy": 0,
    "quench": -7,
    "flags": [ "SMOKABLE" ],
    "smoking_result": "sausage_wasteland"
  },





  {
    "type": "COMESTIBLE",
    "id": "can_spam",
    "name": { "str_sp": "SPAM" },
    "//": "SPAM comes in cans of six 2 oz slices.  Each charge is one slice.",
    "weight": "56 g",
    "color": "pink",
    "spoils_in": "360 day",
    "container": "can_medium",
    "comestible_type": "FOOD",
    "symbol": "%",
    "quench": -3,
    "calories": 180,
    "description": "A canned pork product that is unnaturally pink, oddly rubbery, and not very tasty, this SPAM remains quite filling.  Completely unappetizing, but quite filling.",
    "price": 400,
    "price_postapoc": 300,
    "material": [ "flesh" ],
    "volume": "83 ml",
    "flags": [ "EATEN_HOT" ],
    "fun": -8,
    "vitamins": [
      [ "vitC", 300 ],
      [ "calcium", 300 ],
      [ "iron", 300 ]
    ]
  },
  
  {
    "type": "COMESTIBLE",
    "id": "can_chicken",
    "name": { "str": "canned chicken" },
    "weight": "217 g",
    "color": "pink",
    "spoils_in": "360 day",
    "container": "can_medium",
    "comestible_type": "FOOD",
    "symbol": "%",
    "calories": 400,
    "description": "Bright white chicken-paste.",
    "price": 400,
    "price_postapoc": 600,
    "material": [ "flesh" ],
    "volume": "250 ml",
    "fun": 1,
    "vitamins": [
      [ "vitC", 300 ],
      [ "calcium", 300 ],
      [ "iron", 300 ]
    ]
  },
  
  {
    "type": "COMESTIBLE",
    "id": "can_clams",
    "name": { "str": "canned clam" },
    "weight": "169 g",
    "color": "light_gray",
    "spoils_in": "360 day",
    "container": "can_food",
    "comestible_type": "FOOD",
    "symbol": "%",
    "quench": 1,
    "calories": 240,
    "description": "Chopped quahog clams in water.",
    "price": 500,
    "price_postapoc": 500,
    "material": [ "flesh" ],
    "volume": "250 ml",
    "fun": 2,
    "vitamins": [
      [ "vitC", 300 ],
      [ "calcium", 300 ],
      [ "iron", 300 ]
    ]
  },

  {
    "type": "COMESTIBLE",
    "id": "can_chowder",
    "name": { "str": "clam chowder" },
    "conditional_names": [
      { "type": "COMPONENT_ID", "condition": "meat", "name": "meat chowder" },
      { "type": "COMPONENT_ID", "condition": "mutant", "name": "monster chowder" }
    ],
    "weight": "253 g",
    "color": "white",
    "spoils_in": "360 day",
    "container": "can_medium",
    "comestible_type": "FOOD",
    "symbol": "%",
    "quench": 2,
    "calories": 142,
    "description": "Delicious, lumpy, white soup made of meat (normally clam) and potatoes.  A taste of the lost glory of New England.",
    "price": 400,
    "price_postapoc": 400,
    "material": [ "flesh", "milk" ],
    "volume": "250 ml",
    "flags": [ "EATEN_HOT" ],
    "fun": 6,
    "vitamins": [
      [ "vitC", 300 ],
      [ "calcium", 300 ],
      [ "iron", 300 ]
    ]
  },




  {
    "type": "COMESTIBLE",
    "id": "deluxe_beans",
    "name": { "str_sp": "baked beans" },
    "conditional_names": [ { "type": "COMPONENT_ID", "condition": "mutant", "name": { "str_sp": "ork and beans" } } ],
    "weight": "293 g",
    "color": "brown",
    "spoils_in": "20 days",
    "comestible_type": "FOOD",
    "symbol": "%",
    "calories": 373,
    "description": "Slow-cooked beans with meat.  Tasty and very filling.",
    "price": 700,
    "price_postapoc": 400,
    "material": [ "bean", "flesh" ],
    "volume": "1 L",
    "//": "One beans + one protein = 2 servings",
    "flags": [ "EATEN_HOT" ],
    "fun": 4,
    "vitamins": [
      [ "vitC", 300 ],
      [ "calcium", 300 ],
      [ "iron", 300 ]
    ]
  },

  {
    "type": "COMESTIBLE",
    "id": "deluxe_rice",
    "name": { "str_sp": "meat fried rice" },
    "conditional_names": [ { "type": "COMPONENT_ID", "condition": "mutant", "name": { "str_sp": "mutant fried rice" } } ],
    "weight": "187 g",
    "color": "yellow",
    "spoils_in": "20 days",
    "comestible_type": "FOOD",
    "symbol": "%",
    "calories": 313,
    "description": "Delicious fried rice with meat.  Tasty and very filling.",
    "price": 700,
    "price_postapoc": 400,
    "material": [ "veggy", "flesh" ],
    "volume": "1 L",
    "//": "One rice + one protein/veg = 2 servings",
    "flags": [ "EATEN_HOT", "FREEZERBURN" ],
    "fun": 5,
    "vitamins": [
      [ "vitC", 300 ],
      [ "calcium", 300 ],
      [ "iron", 300 ]
    ]
  },

  {
    "type": "COMESTIBLE",
    "id": "deluxe_beansnrice",
    "name": { "str_sp": "deluxe beans and rice" },
    "conditional_names": [ { "type": "COMPONENT_ID", "condition": "mutant", "name": { "str_sp": "\"deluxe\" beans and rice" } } ],
    "weight": "312 g",
    "color": "brown",
    "spoils_in": "20 days",
    "comestible_type": "FOOD",
    "symbol": "%",
    "healthy": 1,
    "calories": 414,
    "description": "Slow-cooked beans and rice with meat and seasonings.  Tasty and very filling.",
    "price": 750,
    "price_postapoc": 400,
    "material": [ "veggy", "bean", "flesh" ],
    "volume": "375 ml",
    "flags": [ "EATEN_HOT", "FREEZERBURN" ],
    "fun": 4,
    "vitamins": [
      [ "vitC", 300 ],
      [ "calcium", 300 ],
      [ "iron", 300 ]
    ]
  },

  {
    "type": "COMESTIBLE",
    "id": "pie_meat",
    "name": { "str": "meat pie" },
    "conditional_names": [
      { "type": "FLAG", "condition": "CANNIBALISM", "name": { "str_sp": "prick pie" } },
      { "type": "FLAG", "condition": "STRICT_HUMANITARIANISM", "name": { "str_sp": "talking animal pie" } },
      { "type": "COMPONENT_ID", "condition": "mutant", "name": { "str_sp": "malignant %s" } }
    ],
    "weight": "189 g",
    "color": "brown",
    "spoils_in": "20 days",
    "container": "box_small",
    "comestible_type": "FOOD",
    "symbol": "%",
    "quench": 5,
    "healthy": 1,
    "calories": 400,
    "description": "A delicious baked pie with a delicious meat filling.",
    "price": 1350,
    "price_postapoc": 2000,
    "material": [ "wheat", "flesh" ],
    "volume": "250 ml",
    "flags": [ "EATEN_HOT" ],
    "fun": 3,
    "vitamins": [
      [ "vitC", 300 ],
      [ "calcium", 300 ],
      [ "iron", 300 ]
    ]
  },

  {
    "type": "COMESTIBLE",
    "id": "deluxe_eggs",
    "name": { "str_sp": "deluxe scrambled eggs" },
    "conditional_names": [ { "type": "COMPONENT_ID", "condition": "mutant", "name": { "str_sp": "\"deluxe\" scrambled eggs" } } ],
    "weight": "198 g",
    "color": "yellow",
    "spoils_in": "20 days",
    "comestible_type": "FOOD",
    "symbol": "%",
    "healthy": 1,
    "calories": 279,
    "description": "Fluffy and delicious scrambled eggs made more delicious with the addition of other tasty ingredients.",
    "price": 700,
    "price_postapoc": 450,
    "material": [ "egg", "flesh" ],
    "volume": "250 ml",
    "flags": [ "EATEN_HOT", "FREEZERBURN" ],
    "fun": 4,
    "vitamins": [
      [ "vitC", 300 ],
      [ "calcium", 300 ],
      [ "iron", 300 ]
    ]
  }
]
